﻿[
  {
    "outputFile": "Content/Site.css",
    "inputFile": "Content/Site.less"
  },
  {
    "outputFile": "Content/ui-widgets.css",
    "inputFile": "Content/ui-widgets.less"
  },
  {
    "outputFile": "Content/bootstrap-plus.css",
    "inputFile": "Content/bootstrap-plus.less"
  },
  {
    "outputFile": "Content/theme-custom.css",
    "inputFile": "Content/theme-custom.less"
  },
  {
    "outputFile": "Content/flexslider-2.6.3.css",
    "inputFile": "Content/flexslider-2.6.3.less"
  },
  {
    "outputFile": "Content/Site.Home.css",
    "inputFile": "Content/Site.Home.less"
  },
  {
    "outputFile": "Content/Site.Manage.css",
    "inputFile": "Content/Site.Manage.less"
  }
]